D:\mywork\purchaseadmin\purchaseadmin_component\src\main\java\com\xianzaishi\purchaseadmin\component\category\ValueInsertComponent.java
D:\mywork\purchaseadmin\purchaseadmin_component\src\main\java\com\xianzaishi\purchaseadmin\component\promotion\PromotionComponent.java
D:\mywork\purchaseadmin\purchaseadmin_component\src\main\java\com\xianzaishi\purchaseadmin\component\custom\CustomComponent.java
D:\mywork\purchaseadmin\purchaseadmin_component\src\main\java\com\xianzaishi\purchaseadmin\component\pic\PicComponent.java
D:\mywork\purchaseadmin\purchaseadmin_component\src\main\java\com\xianzaishi\purchaseadmin\component\steelyard\SteelyardComponent.java
D:\mywork\purchaseadmin\purchaseadmin_component\src\main\java\com\xianzaishi\purchaseadmin\component\presenter\PresenterComponent.java
D:\mywork\purchaseadmin\purchaseadmin_component\src\main\java\com\xianzaishi\purchaseadmin\component\item\MaintenanceComponent.java
D:\mywork\purchaseadmin\purchaseadmin_component\src\main\java\com\xianzaishi\purchaseadmin\component\user\UserComponent.java
D:\mywork\purchaseadmin\purchaseadmin_component\src\main\java\com\xianzaishi\purchaseadmin\component\user\SupplierComponent.java
D:\mywork\purchaseadmin\purchaseadmin_component\src\main\java\com\xianzaishi\purchaseadmin\component\monitor\MonitorComponent.java
D:\mywork\purchaseadmin\purchaseadmin_component\src\main\java\com\xianzaishi\purchaseadmin\component\common\SpringContextUtil.java
D:\mywork\purchaseadmin\purchaseadmin_component\src\main\java\com\xianzaishi\purchaseadmin\component\order\SubOrderDetailComponent.java
D:\mywork\purchaseadmin\purchaseadmin_component\src\main\java\com\xianzaishi\purchaseadmin\component\order\OrderListComponent.java
D:\mywork\purchaseadmin\purchaseadmin_component\src\main\java\com\xianzaishi\purchaseadmin\component\category\PropertyInsertComponent.java
D:\mywork\purchaseadmin\purchaseadmin_component\src\main\java\com\xianzaishi\purchaseadmin\component\marketactivity\MarketActivityComponent.java
D:\mywork\purchaseadmin\purchaseadmin_component\src\main\java\com\xianzaishi\purchaseadmin\component\order\OrderComponent.java
D:\mywork\purchaseadmin\purchaseadmin_component\src\main\java\com\xianzaishi\purchaseadmin\component\item\ItemReleaseComponent.java
D:\mywork\purchaseadmin\purchaseadmin_component\src\main\java\com\xianzaishi\purchaseadmin\component\item\ItemComponent.java
D:\mywork\purchaseadmin\purchaseadmin_component\src\main\java\com\xianzaishi\purchaseadmin\component\activitypage\ActivityPageComponent.java
D:\mywork\purchaseadmin\purchaseadmin_component\src\main\java\com\xianzaishi\purchaseadmin\component\annotation\Crossdomain.java
D:\mywork\purchaseadmin\purchaseadmin_component\src\main\java\com\xianzaishi\purchaseadmin\component\trade\TradeOrderComponent.java
D:\mywork\purchaseadmin\purchaseadmin_component\src\main\java\com\xianzaishi\purchaseadmin\component\annotation\Authorization.java
D:\mywork\purchaseadmin\purchaseadmin_component\src\main\java\com\xianzaishi\purchaseadmin\component\wms\WmsCallBackComponent.java
D:\mywork\purchaseadmin\purchaseadmin_component\src\main\java\com\xianzaishi\purchaseadmin\component\category\CategoryComponent.java
D:\mywork\purchaseadmin\purchaseadmin_component\src\main\java\com\xianzaishi\purchaseadmin\component\organizaion\OrganizationComponent.java
D:\mywork\purchaseadmin\purchaseadmin_component\src\main\java\com\xianzaishi\purchaseadmin\component\inventory\InventoryComponent.java
D:\mywork\purchaseadmin\purchaseadmin_component\src\main\java\com\xianzaishi\purchaseadmin\component\common\EnvUtil.java
D:\mywork\purchaseadmin\purchaseadmin_component\src\main\java\com\xianzaishi\purchaseadmin\component\salelist\SaleListComponent.java
